EPsy 8264: 📝 Biased Estimation: Ridge Regression
…
Ridge Trace

A ridge trace computes the ridge regression coefficients for many different values of \(\lambda\). A plot of this trace, can be examined to select the \(\lambda\) value. To do this, we pick the smallest value for \(\lambda\) that produces stable regression coefficients. Here we examine the values of \(\lambda\) where \(\lambda = \{ 0,0.001,0.002,0.003,\ldots,100\}\).

To create this plot, we fit a ridge regression that includes a sequence of values in the lambda= argument of the lm.ridge() function. Then we use the tidy() function to summarize the output from this model. This output includes the coefficient estimates for each of the \(\lambda\) values in our sequence. We can then create a line plot of the coefficient values versus the \(\lambda\) values for each predictor.

# Fit ridge model across several lambda values
ridge_models = lm.ridge(achievement ~ -1 + faculty + peer + school, data = z_data, 
                        lambda = seq(from = 0, to = 100, by = 0.01))

# Get tidy() output
ridge_trace = tidy(ridge_models)
ridge_trace

# A tibble: 30,003 × 5
   lambda    GCV term    estimate scale
    <dbl>  <dbl> <chr>      <dbl> <dbl>
 1   0    0.0122 faculty    0.521 0.993
 2   0    0.0122 peer       0.938 0.993
 3   0    0.0122 school    -1.02  0.993
 4   0.01 0.0122 faculty    0.511 0.993
 5   0.01 0.0122 peer       0.928 0.993
 6   0.01 0.0122 school    -1.00  0.993
 7   0.02 0.0122 faculty    0.501 0.993
 8   0.02 0.0122 peer       0.918 0.993
 9   0.02 0.0122 school    -0.980 0.993
10   0.03 0.0122 faculty    0.491 0.993
# … with 29,993 more rows
…
