Biased Estimation: Ridge Regression
…
Ridge Trace

The plot of the ridge trace displays the ridge regression coefficients as a function of d. Examining this plot, the analyst can use it to pick a d value. To do this, pick the smallest value for d that produces stable regression coefficients. Here we examine the values of d where \(d = \{ 0,0.001,0.002,0.003,\ldots,100\}\).

To create this plot, we fit a ridge regression that includes a sequence of values in the lambda= argument of the lm.ridge() function. Then we use the tidy() function from the broom library to summarize the output from this model. This output includes the coefficient estimates for each of the d values in our sequence. We can then create a line plot of the coefficient values versus the d values for each predictor.

# Fit ridge model across several lambda values
ridge_models = ridge_1 = lm.ridge(achievement ~ -1 + faculty + peer + school, data = z_data, lambda = seq(from = 0, to = 100, by = 0.001))

# Get tidy() output
out = tidy(ridge_models)
out

# A tibble: 300,003 x 5
   lambda    GCV term    estimate scale
    <dbl>  <dbl> <chr>      <dbl> <dbl>
 1  0     0.0122 faculty    0.521 0.993
 2  0     0.0122 peer       0.938 0.993
 3  0     0.0122 school    -1.02  0.993
 4  0.001 0.0122 faculty    0.520 0.993
 5  0.001 0.0122 peer       0.937 0.993
 6  0.001 0.0122 school    -1.02  0.993
 7  0.002 0.0122 faculty    0.519 0.993
 8  0.002 0.0122 peer       0.936 0.993
 9  0.002 0.0122 school    -1.02  0.993
10  0.003 0.0122 faculty    0.518 0.993
#  with 299,993 more rows
…
